[
  {
    "from": {
      "name": "cfb",
      "version": "0.11.1"
    },
    "to": {
      "name": "commander",
      "version": "6.2.1"
    },
    "range": ""
  },
  {
    "to": {
      "name": "acorn",
      "version": "4.0.11"
    },
    "range": "^4.0.3"
  },
  {
    "to": {
      "name": "@angular/animations",
      "version": "4.4.6"
    },
    "range": "^4.3.1"
  },
  {
    "to": {
      "name": "moment",
      "version": "2.29.1"
    },
    "range": "*"
  },
  {
    "to": {
      "name": "cfb",
      "version": "0.11.1"
    },
    "range": "~0.11.0"
  },
  {
    "to": {
      "name": "acorn",
      "version": "4.0.4"
    },
    "range": "4.0.4"
  },
  {
    "to": {
      "name": "acorn",
      "version": "4.0.4"
    },
    "range": "^4.0.4"
  },
  {
    "to": {
      "name": "acorn",
      "version": "3.3.0"
    },
    "range": "^3.0.4"
  },
  {
    "to": {
      "name": "acorn",
      "version": "4.0.11"
    },
    "range": "^4.0.11"
  }
]
