[
  {
    "name": "@next/swc-android-arm64",
    "version": "13.0.0"
  },
  {
    "name": "@next/swc-darwin-arm64",
    "version": "13.0.0"
  },
  {
    "name": "@next/swc-darwin-x64",
    "version": "13.0.0"
  },
  {
    "name": "@swc/helpers",
    "version": "0.4.11"
  },
  {
    "name": "next",
    "version": "13.0.0"
  },
  {
    "name": "picocolors",
    "version": "1.0.0"
  },
  {
    "name": "@next/env",
    "version": "13.0.0"
  },
  {
    "name": "@next/swc-android-arm-eabi",
    "version": "13.0.0"
  },
  {
    "name": "tslib",
    "version": "2.4.0"
  },
  {
    "name": "nanoid",
    "version": "3.3.4"
  },
  {
    "name": "styled-jsx",
    "version": "5.1.0"
  },
  {
    "name": "@next/swc-linux-arm64-gnu",
    "version": "13.0.0"
  },
  {
    "name": "client-only",
    "version": "0.0.1"
  },
  {
    "name": "@next/swc-win32-x64-msvc",
    "version": "13.0.0"
  },
  {
    "name": "postcss",
    "version": "8.4.14"
  },
  {
    "name": "source-map-js",
    "version": "1.0.2"
  },
  {
    "name": "@next/swc-linux-arm64-musl",
    "version": "13.0.0"
  },
  {
    "name": "@next/swc-win32-ia32-msvc",
    "version": "13.0.0"
  },
  {
    "name": "@next/swc-linux-x64-gnu",
    "version": "13.0.0"
  },
  {
    "name": "@next/swc-linux-x64-musl",
    "version": "13.0.0"
  },
  {
    "name": "caniuse-lite",
    "version": "1.0.30001426"
  },
  {
    "name": "typescript",
    "version": "4.8.4"
  },
  {
    "name": "use-sync-external-store",
    "version": "1.2.0"
  },
  {
    "name": "@next/swc-freebsd-x64",
    "version": "13.0.0"
  },
  {
    "name": "@next/swc-linux-arm-gnueabihf",
    "version": "13.0.0"
  },
  {
    "name": "@next/swc-win32-arm64-msvc",
    "version": "13.0.0"
  }
]
