{
  "version": "0.0.1",
  "analyzer": {
    "id": "gemnasium-python",
    "version": "2.23.0"
  },
  "components": [
    {
      "project": {
        "path": "."
      },
      "package_type": "pypi",
      "package_manager": "pip",
      "language": "Python",
      "files": [
        {
          "type": "sbom",
          "path": "gl-sbom-pypi-pip.cdx.json"
        },
        {
          "type": "input",
          "path": "requirements.txt"
        }
      ]
    }
  ],
  "timestamp": "2022-04-13T05:43:57Z"
}
