{
  "bomFormat": "CycloneDX",
  "specVersion": "1.4",
  "serialNumber": "urn:uuid:e5320d82-0a79-41ad-91a3-03f3b30124e0",
  "version": 1,
  "metadata": {
    "timestamp": "2022-03-04T01:49:50Z",
    "tools": [
      {
        "vendor": "GitLab",
        "name": "Gemnasium",
        "version": "not-configured"
      }
    ],
    "authors": [
      {
        "name": "GitLab",
        "email": "support@gitlab.com"
      }
    ],
    "properties": [
      {
        "name": "gitlab:dependency_scanning:input_file",
        "value": "cust-reqs.foo"
      },
      {
        "name": "gitlab:dependency_scanning:input_file:path",
        "value": "cust-reqs.foo"
      },
      {
        "name": "gitlab:dependency_scanning:package_manager",
        "value": "pip"
      },
      {
        "name": "gitlab:dependency_scanning:package_manager:name",
        "value": "pip"
      },
      {
        "name": "gitlab:meta:schema_version",
        "value": "1"
      }
    ]
  },
  "components": [
    {
      "name": "Django",
      "version": "1.11.4",
      "purl": "pkg:pypi/Django@1.11.4",
      "type": "library",
      "bom-ref": "pkg:pypi/Django@1.11.4"
    },
    {
      "name": "beautifulsoup4",
      "version": "4.10.0",
      "purl": "pkg:pypi/beautifulsoup4@4.10.0",
      "type": "library",
      "bom-ref": "pkg:pypi/beautifulsoup4@4.10.0"
    },
    {
      "name": "django-contrib-comments",
      "version": "1.8.0",
      "purl": "pkg:pypi/django-contrib-comments@1.8.0",
      "type": "library",
      "bom-ref": "pkg:pypi/django-contrib-comments@1.8.0"
    },
    {
      "name": "django-js-asset",
      "version": "1.0.0",
      "purl": "pkg:pypi/django-js-asset@1.0.0",
      "type": "library",
      "bom-ref": "pkg:pypi/django-js-asset@1.0.0"
    },
    {
      "name": "django-mptt",
      "version": "0.9.0",
      "purl": "pkg:pypi/django-mptt@0.9.0",
      "type": "library",
      "bom-ref": "pkg:pypi/django-mptt@0.9.0"
    },
    {
      "name": "django-tagging",
      "version": "0.4.6",
      "purl": "pkg:pypi/django-tagging@0.4.6",
      "type": "library",
      "bom-ref": "pkg:pypi/django-tagging@0.4.6"
    },
    {
      "name": "django-xmlrpc",
      "version": "0.1.8",
      "purl": "pkg:pypi/django-xmlrpc@0.1.8",
      "type": "library",
      "bom-ref": "pkg:pypi/django-xmlrpc@0.1.8"
    },
    {
      "name": "mots-vides",
      "version": "2015.5.11",
      "purl": "pkg:pypi/mots-vides@2015.5.11",
      "type": "library",
      "bom-ref": "pkg:pypi/mots-vides@2015.5.11"
    },
    {
      "name": "pyparsing",
      "version": "2.2.0",
      "purl": "pkg:pypi/pyparsing@2.2.0",
      "type": "library",
      "bom-ref": "pkg:pypi/pyparsing@2.2.0"
    },
    {
      "name": "pytz",
      "version": "2018.3",
      "purl": "pkg:pypi/pytz@2018.3",
      "type": "library",
      "bom-ref": "pkg:pypi/pytz@2018.3"
    },
    {
      "name": "regex",
      "version": "2018.2.8",
      "purl": "pkg:pypi/regex@2018.2.8",
      "type": "library",
      "bom-ref": "pkg:pypi/regex@2018.2.8"
    },
    {
      "name": "soupsieve",
      "version": ":SKIP:",
      "purl": ":SKIP:",
      "type": "library",
      "bom-ref": ":SKIP:"
    }
  ]
}
