{
  "version": "14.0.4",
  "vulnerabilities": [
    {
      "id": "f712abe683f76714b5ff2c723550eb8a5ede5cba4f345ce476d3e3c81ccde421",
      "category": "dependency_scanning",
      "name": "Insufficient Entropy",
      "message": "Insufficient Entropy in cryptiles",
      "description": "Eran Hammer cryptiles contains an Insufficient Entropy vulnerability in `randomDigits()`. An attacker is more likely to be able to brute force something that was supposed to be random. This attack appear to be exploitable depending upon the calling application.",
      "cve": "pnpm-lock.yaml:cryptiles:gemnasium:de36ea12-2c68-48fc-9bfe-ae8f0d6ebd96",
      "severity": "Critical",
      "solution": "Upgrade to version 4.1.2 or above.",
      "scanner": {
        "id": "gemnasium",
        "name": "Gemnasium"
      },
      "location": {
        "file": "pnpm-lock.yaml",
        "dependency": {
          "package": {
            "name": "cryptiles"
          },
          "version": "0.2.2"
        }
      },
      "identifiers": [
        {
          "type": "gemnasium",
          "name": "Gemnasium-de36ea12-2c68-48fc-9bfe-ae8f0d6ebd96",
          "value": "de36ea12-2c68-48fc-9bfe-ae8f0d6ebd96",
          "url": "https://gitlab.com/gitlab-org/security-products/gemnasium-db/-/blob/v1.2.142/npm/cryptiles/CVE-2018-1000620.yml"
        },
        {
          "type": "cve",
          "name": "CVE-2018-1000620",
          "value": "CVE-2018-1000620",
          "url": "https://cve.mitre.org/cgi-bin/cvename.cgi?name=CVE-2018-1000620"
        }
      ],
      "links": [
        {
          "url": "https://nvd.nist.gov/vuln/detail/CVE-2018-1000620"
        }
      ],
      "details": {
        "vulnerable_package": {
          "type": "text",
          "name": "Vulnerable Package",
          "value": "cryptiles:0.2.2"
        }
      }
    },
    {
      "id": "9bbefd5528718a58249d1dc236a6728c13268016df7b9f3c57e0cb4a14011021",
      "category": "dependency_scanning",
      "name": "Improper Input Validation",
      "message": "Improper Input Validation in lodash",
      "description": "lodash is vulnerable to Prototype Pollution. The function `defaultsDeep` could be tricked into adding or modifying properties of `Object.prototype` using a constructor payload.",
      "cve": "pnpm-lock.yaml:lodash:gemnasium:4774cd67-936f-419e-8533-ae5cfe7db9f9",
      "severity": "Critical",
      "solution": "Upgrade to version 4.17.12 or above.",
      "scanner": {
        "id": "gemnasium",
        "name": "Gemnasium"
      },
      "location": {
        "file": "pnpm-lock.yaml",
        "dependency": {
          "package": {
            "name": "lodash"
          },
          "version": "4.17.11"
        }
      },
      "identifiers": [
        {
          "type": "gemnasium",
          "name": "Gemnasium-4774cd67-936f-419e-8533-ae5cfe7db9f9",
          "value": "4774cd67-936f-419e-8533-ae5cfe7db9f9",
          "url": "https://gitlab.com/gitlab-org/security-products/gemnasium-db/-/blob/v1.2.142/npm/lodash/CVE-2019-10744.yml"
        },
        {
          "type": "cve",
          "name": "CVE-2019-10744",
          "value": "CVE-2019-10744",
          "url": "https://cve.mitre.org/cgi-bin/cvename.cgi?name=CVE-2019-10744"
        }
      ],
      "links": [
        {
          "url": "https://nvd.nist.gov/vuln/detail/CVE-2019-10744"
        }
      ],
      "details": {
        "vulnerable_package": {
          "type": "text",
          "name": "Vulnerable Package",
          "value": "lodash:4.17.11"
        }
      }
    },
    {
      "id": "f82edd436147e1d2d6b8626c8ee8aa1fdb6592fd59f3ee56de39ae784d3b29c3",
      "category": "dependency_scanning",
      "name": "Out-of-bounds Read",
      "message": "Out-of-bounds Read in bl",
      "description": "A buffer over-read vulnerability exists in bl which could allow an attacker to supply user input (even typed) that if it ends up in `consume()` argument and can become negative, the BufferList state can be corrupted, tricking it into exposing uninitialized memory via regular `.slice()` calls.",
      "cve": "pnpm-lock.yaml:bl:gemnasium:5c803f2c-d546-484b-bb75-8d3dc9140e08",
      "severity": "High",
      "solution": "Upgrade to versions 2.2.1, 3.0.1, 4.0.3 or above.",
      "scanner": {
        "id": "gemnasium",
        "name": "Gemnasium"
      },
      "location": {
        "file": "pnpm-lock.yaml",
        "dependency": {
          "package": {
            "name": "bl"
          },
          "version": "0.9.5"
        }
      },
      "identifiers": [
        {
          "type": "gemnasium",
          "name": "Gemnasium-5c803f2c-d546-484b-bb75-8d3dc9140e08",
          "value": "5c803f2c-d546-484b-bb75-8d3dc9140e08",
          "url": "https://gitlab.com/gitlab-org/security-products/gemnasium-db/-/blob/v1.2.142/npm/bl/CVE-2020-8244.yml"
        },
        {
          "type": "cve",
          "name": "CVE-2020-8244",
          "value": "CVE-2020-8244",
          "url": "https://cve.mitre.org/cgi-bin/cvename.cgi?name=CVE-2020-8244"
        }
      ],
      "links": [
        {
          "url": "https://nvd.nist.gov/vuln/detail/CVE-2020-8244"
        }
      ],
      "details": {
        "vulnerable_package": {
          "type": "text",
          "name": "Vulnerable Package",
          "value": "bl:0.9.5"
        }
      }
    },
    {
      "id": "2dbdc2cb700ae8dc24c4d142edcc64f54e0ead8fe6e56792017e1dfb7dd341bc",
      "category": "dependency_scanning",
      "name": "Improper Input Validation",
      "message": "Improper Input Validation in decamelize",
      "description": "Decamelize uses regular expressions to evaluate a string and takes unescaped separator values, which can be used to create a denial of service attack.",
      "cve": "pnpm-lock.yaml:decamelize:gemnasium:cfa05151-753f-4373-833c-a27e772c87a2",
      "severity": "High",
      "solution": "Upgrade to version 1.1.2 or above.",
      "scanner": {
        "id": "gemnasium",
        "name": "Gemnasium"
      },
      "location": {
        "file": "pnpm-lock.yaml",
        "dependency": {
          "package": {
            "name": "decamelize"
          },
          "version": "1.1.1"
        }
      },
      "identifiers": [
        {
          "type": "gemnasium",
          "name": "Gemnasium-cfa05151-753f-4373-833c-a27e772c87a2",
          "value": "cfa05151-753f-4373-833c-a27e772c87a2",
          "url": "https://gitlab.com/gitlab-org/security-products/gemnasium-db/-/blob/v1.2.142/npm/decamelize/CVE-2017-16023.yml"
        },
        {
          "type": "cve",
          "name": "CVE-2017-16023",
          "value": "CVE-2017-16023",
          "url": "https://cve.mitre.org/cgi-bin/cvename.cgi?name=CVE-2017-16023"
        }
      ],
      "links": [
        {
          "url": "https://nvd.nist.gov/vuln/detail/CVE-2017-16023"
        }
      ],
      "details": {
        "vulnerable_package": {
          "type": "text",
          "name": "Vulnerable Package",
          "value": "decamelize:1.1.1"
        }
      }
    },
    {
      "id": "749b6f0b92a8318e81249dd82f635b4e31793ccb12cd5abdc4bc53e4686fd5d0",
      "category": "dependency_scanning",
      "name": "Regular Expression Denial of Service",
      "message": "Regular Expression Denial of Service in hawk",
      "description": "Specifically crafted long headers or uris can cause a minor denial of service.",
      "cve": "pnpm-lock.yaml:hawk:gemnasium:e33d0bab-2509-420f-950e-785c00309066",
      "severity": "High",
      "solution": "Update to hawk version 4.1.1 or greater.",
      "scanner": {
        "id": "gemnasium",
        "name": "Gemnasium"
      },
      "location": {
        "file": "pnpm-lock.yaml",
        "dependency": {
          "package": {
            "name": "hawk"
          },
          "version": "1.1.1"
        }
      },
      "identifiers": [
        {
          "type": "gemnasium",
          "name": "Gemnasium-e33d0bab-2509-420f-950e-785c00309066",
          "value": "e33d0bab-2509-420f-950e-785c00309066",
          "url": "https://gitlab.com/gitlab-org/security-products/gemnasium-db/-/blob/v1.2.142/npm/hawk/CVE-2016-2515.yml"
        },
        {
          "type": "cve",
          "name": "CVE-2016-2515",
          "value": "CVE-2016-2515",
          "url": "https://cve.mitre.org/cgi-bin/cvename.cgi?name=CVE-2016-2515"
        }
      ],
      "links": [
        {
          "url": "https://github.com/hueniverse/hawk/issues/168"
        },
        {
          "url": "https://nodesecurity.io/advisories/77"
        },
        {
          "url": "https://www.owasp.org/index.php/Regular_expression_Denial_of_Service_-_ReDoS"
        }
      ],
      "details": {
        "vulnerable_package": {
          "type": "text",
          "name": "Vulnerable Package",
          "value": "hawk:1.1.1"
        }
      }
    },
    {
      "id": "d6b3fbec3ba7dfc91a3a743e130029ddc2724a6bc6c02686b403f69584130af0",
      "category": "dependency_scanning",
      "name": "Prototype pollution attack",
      "message": "Prototype pollution attack in hoek",
      "description": "The `merge` function, and the `applyToDefaults` and `applyToDefaultsWithShallow` functions which leverage `merge` behind the scenes, are vulnerable to a prototype pollution attack when provided an unvalidated payload created from a JSON string containing the `__proto__` property.",
      "cve": "pnpm-lock.yaml:hoek:gemnasium:ecfd31cc-df09-48ff-9f79-af1c4f989b49",
      "severity": "High",
      "solution": "Upgrade to latest version.",
      "scanner": {
        "id": "gemnasium",
        "name": "Gemnasium"
      },
      "location": {
        "file": "pnpm-lock.yaml",
        "dependency": {
          "package": {
            "name": "hoek"
          },
          "version": "0.9.1"
        }
      },
      "identifiers": [
        {
          "type": "gemnasium",
          "name": "Gemnasium-ecfd31cc-df09-48ff-9f79-af1c4f989b49",
          "value": "ecfd31cc-df09-48ff-9f79-af1c4f989b49",
          "url": "https://gitlab.com/gitlab-org/security-products/gemnasium-db/-/blob/v1.2.142/npm/hoek/CVE-2018-3728.yml"
        },
        {
          "type": "cve",
          "name": "CVE-2018-3728",
          "value": "CVE-2018-3728",
          "url": "https://cve.mitre.org/cgi-bin/cvename.cgi?name=CVE-2018-3728"
        }
      ],
      "links": [
        {
          "url": "https://github.com/hapijs/hoek/commit/32ed5c9413321fbc37da5ca81a7cbab693786dee"
        },
        {
          "url": "https://github.com/hapijs/hoek/commit/5aed1a8c4a3d55722d1c799f2368857bf418d6df"
        },
        {
          "url": "https://hackerone.com/reports/310439"
        },
        {
          "url": "https://nodesecurity.io/advisories/566"
        }
      ],
      "details": {
        "vulnerable_package": {
          "type": "text",
          "name": "Vulnerable Package",
          "value": "hoek:0.9.1"
        }
      }
    },
    {
      "id": "fa4b464148c1195a1f3f2213600a543c627dc090a853d3536494c80565d70eaf",
      "category": "dependency_scanning",
      "name": "Object Prototype Pollution",
      "message": "Object Prototype Pollution in lodash",
      "description": "Prototype pollution attack when using `_.zipObjectDeep` in lodash.",
      "cve": "pnpm-lock.yaml:lodash:gemnasium:1f7fa42b-6b17-46b7-88a5-8995b43d298f",
      "severity": "High",
      "solution": "Upgrade to version 4.17.20 or above.",
      "scanner": {
        "id": "gemnasium",
        "name": "Gemnasium"
      },
      "location": {
        "file": "pnpm-lock.yaml",
        "dependency": {
          "package": {
            "name": "lodash"
          },
          "version": "4.17.11"
        }
      },
      "identifiers": [
        {
          "type": "gemnasium",
          "name": "Gemnasium-1f7fa42b-6b17-46b7-88a5-8995b43d298f",
          "value": "1f7fa42b-6b17-46b7-88a5-8995b43d298f",
          "url": "https://gitlab.com/gitlab-org/security-products/gemnasium-db/-/blob/v1.2.142/npm/lodash/CVE-2020-8203.yml"
        },
        {
          "type": "cve",
          "name": "CVE-2020-8203",
          "value": "CVE-2020-8203",
          "url": "https://cve.mitre.org/cgi-bin/cvename.cgi?name=CVE-2020-8203"
        }
      ],
      "links": [
        {
          "url": "https://github.com/lodash/lodash/issues/4874"
        },
        {
          "url": "https://nvd.nist.gov/vuln/detail/CVE-2020-8203"
        }
      ],
      "details": {
        "vulnerable_package": {
          "type": "text",
          "name": "Vulnerable Package",
          "value": "lodash:4.17.11"
        }
      }
    },
    {
      "id": "a258f6560387973fa4f5b889f1ad596d7588d4495e7864efb7af732d6e91fdb3",
      "category": "dependency_scanning",
      "name": "Uncontrolled Resource Consumption",
      "message": "Uncontrolled Resource Consumption in mime",
      "description": "The mime module is vulnerable to regular expression denial of service when a mime lookup is performed on untrusted user input.",
      "cve": "pnpm-lock.yaml:mime:gemnasium:f0977c0b-d487-40b1-a505-cda9037cac51",
      "severity": "High",
      "solution": "Upgrade to versions 1.4.1, 2.0.3 or above.",
      "scanner": {
        "id": "gemnasium",
        "name": "Gemnasium"
      },
      "location": {
        "file": "pnpm-lock.yaml",
        "dependency": {
          "package": {
            "name": "mime"
          },
          "version": "1.2.11"
        }
      },
      "identifiers": [
        {
          "type": "gemnasium",
          "name": "Gemnasium-f0977c0b-d487-40b1-a505-cda9037cac51",
          "value": "f0977c0b-d487-40b1-a505-cda9037cac51",
          "url": "https://gitlab.com/gitlab-org/security-products/gemnasium-db/-/blob/v1.2.142/npm/mime/CVE-2017-16138.yml"
        },
        {
          "type": "cve",
          "name": "CVE-2017-16138",
          "value": "CVE-2017-16138",
          "url": "https://cve.mitre.org/cgi-bin/cvename.cgi?name=CVE-2017-16138"
        }
      ],
      "links": [
        {
          "url": "https://nvd.nist.gov/vuln/detail/CVE-2017-16138"
        }
      ],
      "details": {
        "vulnerable_package": {
          "type": "text",
          "name": "Vulnerable Package",
          "value": "mime:1.2.11"
        }
      }
    },
    {
      "id": "60180cbc4893715f09f482dc194d9058c2388f016e3ea719326ad3efaf48bc04",
      "category": "dependency_scanning",
      "name": "Uncontrolled Resource Consumption",
      "message": "Uncontrolled Resource Consumption in moment",
      "description": "The moment module for `Node.js` is prone to a regular expression denial of service via a crafted date string.",
      "cve": "pnpm-lock.yaml:moment:gemnasium:473998fc-fda6-4f3c-a008-2a54f14559d2",
      "severity": "High",
      "solution": "Upgrade to version 2.19.3 or above.",
      "scanner": {
        "id": "gemnasium",
        "name": "Gemnasium"
      },
      "location": {
        "file": "pnpm-lock.yaml",
        "dependency": {
          "package": {
            "name": "moment"
          },
          "version": "2.19.1"
        }
      },
      "identifiers": [
        {
          "type": "gemnasium",
          "name": "Gemnasium-473998fc-fda6-4f3c-a008-2a54f14559d2",
          "value": "473998fc-fda6-4f3c-a008-2a54f14559d2",
          "url": "https://gitlab.com/gitlab-org/security-products/gemnasium-db/-/blob/v1.2.142/npm/moment/CVE-2017-18214.yml"
        },
        {
          "type": "cve",
          "name": "CVE-2017-18214",
          "value": "CVE-2017-18214",
          "url": "https://cve.mitre.org/cgi-bin/cvename.cgi?name=CVE-2017-18214"
        }
      ],
      "links": [
        {
          "url": "https://github.com/moment/moment/issues/4163"
        },
        {
          "url": "https://nvd.nist.gov/vuln/detail/CVE-2017-18214"
        }
      ],
      "details": {
        "vulnerable_package": {
          "type": "text",
          "name": "Vulnerable Package",
          "value": "moment:2.19.1"
        }
      }
    },
    {
      "id": "09c0f9503d59689dfddb9334aafdc8284635a7a9888f820f7069829a7477bf43",
      "category": "dependency_scanning",
      "name": "Improper Input Validation",
      "message": "Improper Input Validation in request",
      "description": "If a request is made using `multipart`, and the body type is a `number`, then the specified number of non-zero memory is passed in the body.",
      "cve": "pnpm-lock.yaml:request:gemnasium:3915be40-780e-4049-8393-7871acdbe580",
      "severity": "Medium",
      "solution": "Upgrade to versions 2.47.0, 2.68.0 or above.",
      "scanner": {
        "id": "gemnasium",
        "name": "Gemnasium"
      },
      "location": {
        "file": "pnpm-lock.yaml",
        "dependency": {
          "package": {
            "name": "request"
          },
          "version": "2.46.0"
        }
      },
      "identifiers": [
        {
          "type": "gemnasium",
          "name": "Gemnasium-3915be40-780e-4049-8393-7871acdbe580",
          "value": "3915be40-780e-4049-8393-7871acdbe580",
          "url": "https://gitlab.com/gitlab-org/security-products/gemnasium-db/-/blob/v1.2.142/npm/request/CVE-2017-16026.yml"
        },
        {
          "type": "cve",
          "name": "CVE-2017-16026",
          "value": "CVE-2017-16026",
          "url": "https://cve.mitre.org/cgi-bin/cvename.cgi?name=CVE-2017-16026"
        }
      ],
      "links": [
        {
          "url": "https://github.com/request/request/issues/1904"
        },
        {
          "url": "https://github.com/request/request/pull/2018"
        },
        {
          "url": "https://nvd.nist.gov/vuln/detail/CVE-2017-16026"
        }
      ],
      "details": {
        "vulnerable_package": {
          "type": "text",
          "name": "Vulnerable Package",
          "value": "request:2.46.0"
        }
      }
    },
    {
      "id": "aa3f9da18cbc59c49824fa22dedf8f26b6c6ac71e67f5c1e3c7e1da26cd55704",
      "category": "dependency_scanning",
      "name": "Regular Expression Denial of Service",
      "message": "Regular Expression Denial of Service in decamelize",
      "description": "Decamelize uses regular expressions to evaluate a string and takes unescaped separator values, which can be used to create a denial of service attack.",
      "cve": "pnpm-lock.yaml:decamelize:gemnasium:980f208d-a755-46f3-8bac-4decf4c48f56",
      "severity": "Unknown",
      "solution": "Upgrade to version 1.1.2 or later.",
      "scanner": {
        "id": "gemnasium",
        "name": "Gemnasium"
      },
      "location": {
        "file": "pnpm-lock.yaml",
        "dependency": {
          "package": {
            "name": "decamelize"
          },
          "version": "1.1.1"
        }
      },
      "identifiers": [
        {
          "type": "gemnasium",
          "name": "Gemnasium-980f208d-a755-46f3-8bac-4decf4c48f56",
          "value": "980f208d-a755-46f3-8bac-4decf4c48f56",
          "url": "https://gitlab.com/gitlab-org/security-products/gemnasium-db/-/blob/v1.2.142/npm/decamelize/GMS-2015-53.yml"
        }
      ],
      "links": [
        {
          "url": "https://github.com/sindresorhus/decamelize/issues/5"
        },
        {
          "url": "https://nodesecurity.io/advisories/308"
        }
      ],
      "details": {
        "vulnerable_package": {
          "type": "text",
          "name": "Vulnerable Package",
          "value": "decamelize:1.1.1"
        }
      }
    },
    {
      "id": "805c6750dd15c7c9022811ae501c724aa177f1d85b4639576a1c2229434f018a",
      "category": "dependency_scanning",
      "name": "Regular Expression Denial of Service",
      "message": "Regular Expression Denial of Service in mime",
      "description": "The mime module is vulnerable to regular expression denial of service when a mime lookup is performed on untrusted user input.",
      "cve": "pnpm-lock.yaml:mime:gemnasium:6c482efa-d68b-44eb-97d3-c2bf5fd542be",
      "severity": "Unknown",
      "solution": "Upgrade to version 2.0.3 or greater.",
      "scanner": {
        "id": "gemnasium",
        "name": "Gemnasium"
      },
      "location": {
        "file": "pnpm-lock.yaml",
        "dependency": {
          "package": {
            "name": "mime"
          },
          "version": "1.2.11"
        }
      },
      "identifiers": [
        {
          "type": "gemnasium",
          "name": "Gemnasium-6c482efa-d68b-44eb-97d3-c2bf5fd542be",
          "value": "6c482efa-d68b-44eb-97d3-c2bf5fd542be",
          "url": "https://gitlab.com/gitlab-org/security-products/gemnasium-db/-/blob/v1.2.142/npm/mime/GMS-2017-247.yml"
        }
      ],
      "links": [
        {
          "url": "https://github.com/broofa/node-mime/issues/167"
        },
        {
          "url": "https://nodesecurity.io/advisories/535"
        }
      ],
      "details": {
        "vulnerable_package": {
          "type": "text",
          "name": "Vulnerable Package",
          "value": "mime:1.2.11"
        }
      }
    },
    {
      "id": "ba6a67fd5f320753406913a0516e5d168e72ea8aeb5513e7c25327144dba5126",
      "category": "dependency_scanning",
      "name": "Regular Expression Denial of Service",
      "message": "Regular Expression Denial of Service in moment",
      "description": "Moment is vulnerable to a low severity regular expression denial of service vulnerability.",
      "cve": "pnpm-lock.yaml:moment:gemnasium:a8a43b37-fc01-492c-b30b-996c906c5f84",
      "severity": "Unknown",
      "solution": "Update to version 2.19.3",
      "scanner": {
        "id": "gemnasium",
        "name": "Gemnasium"
      },
      "location": {
        "file": "pnpm-lock.yaml",
        "dependency": {
          "package": {
            "name": "moment"
          },
          "version": "2.19.1"
        }
      },
      "identifiers": [
        {
          "type": "gemnasium",
          "name": "Gemnasium-a8a43b37-fc01-492c-b30b-996c906c5f84",
          "value": "a8a43b37-fc01-492c-b30b-996c906c5f84",
          "url": "https://gitlab.com/gitlab-org/security-products/gemnasium-db/-/blob/v1.2.142/npm/moment/GMS-2017-332.yml"
        }
      ],
      "links": [
        {
          "url": "https://github.com/moment/moment/issues/4163"
        },
        {
          "url": "https://github.com/moment/moment/pull/4326"
        },
        {
          "url": "https://nodesecurity.io/advisories/532"
        }
      ],
      "details": {
        "vulnerable_package": {
          "type": "text",
          "name": "Vulnerable Package",
          "value": "moment:2.19.1"
        }
      }
    },
    {
      "id": "8656cd810f6878b9b0d8753b017bd0715500bb48ea99c8d329fdabf7630c7d28",
      "category": "dependency_scanning",
      "name": "Remote Memory Exposure",
      "message": "Remote Memory Exposure in request",
      "description": "If a request is made using `multipart`, and the body type is a `number`, then the specified number of non-zero memory is passed in the body.",
      "cve": "pnpm-lock.yaml:request:gemnasium:04e24d91-9ce3-437b-a24d-7e9d3ec9f447",
      "severity": "Unknown",
      "solution": "Upgrade request to version 2.68.0 or higher.",
      "scanner": {
        "id": "gemnasium",
        "name": "Gemnasium"
      },
      "location": {
        "file": "pnpm-lock.yaml",
        "dependency": {
          "package": {
            "name": "request"
          },
          "version": "2.46.0"
        }
      },
      "identifiers": [
        {
          "type": "gemnasium",
          "name": "Gemnasium-04e24d91-9ce3-437b-a24d-7e9d3ec9f447",
          "value": "04e24d91-9ce3-437b-a24d-7e9d3ec9f447",
          "url": "https://gitlab.com/gitlab-org/security-products/gemnasium-db/-/blob/v1.2.142/npm/request/GMS-2016-8.yml"
        }
      ],
      "links": [
        {
          "url": "https://github.com/request/request/pull/2018"
        },
        {
          "url": "https://nodesecurity.io/advisories/309"
        }
      ],
      "details": {
        "vulnerable_package": {
          "type": "text",
          "name": "Vulnerable Package",
          "value": "request:2.46.0"
        }
      }
    }
  ],
  "dependency_files": [
    {
      "path": "pnpm-lock.yaml",
      "package_manager": "pnpm",
      "dependencies": [
        {
          "package": {
            "name": "asn1"
          },
          "version": "0.1.11"
        },
        {
          "package": {
            "name": "assert-plus"
          },
          "version": "0.1.5"
        },
        {
          "package": {
            "name": "async"
          },
          "version": "0.9.2"
        },
        {
          "package": {
            "name": "aws-sign2"
          },
          "version": "0.5.0"
        },
        {
          "package": {
            "name": "bl"
          },
          "version": "0.9.5"
        },
        {
          "package": {
            "name": "boom"
          },
          "version": "0.4.2"
        },
        {
          "package": {
            "name": "caseless"
          },
          "version": "0.6.0"
        },
        {
          "package": {
            "name": "combined-stream"
          },
          "version": "0.0.7"
        },
        {
          "package": {
            "name": "core-util-is"
          },
          "version": "1.0.3"
        },
        {
          "package": {
            "name": "cryptiles"
          },
          "version": "0.2.2"
        },
        {
          "package": {
            "name": "ctype"
          },
          "version": "0.5.3"
        },
        {
          "package": {
            "name": "decamelize"
          },
          "version": "1.1.1"
        },
        {
          "package": {
            "name": "delayed-stream"
          },
          "version": "0.0.5"
        },
        {
          "package": {
            "name": "forever-agent"
          },
          "version": "0.5.2"
        },
        {
          "package": {
            "name": "form-data"
          },
          "version": "0.1.4"
        },
        {
          "package": {
            "name": "hawk"
          },
          "version": "1.1.1"
        },
        {
          "package": {
            "name": "hoek"
          },
          "version": "0.9.1"
        },
        {
          "package": {
            "name": "http-signature"
          },
          "version": "0.10.1"
        },
        {
          "package": {
            "name": "inherits"
          },
          "version": "2.0.4"
        },
        {
          "package": {
            "name": "isarray"
          },
          "version": "0.0.1"
        },
        {
          "package": {
            "name": "json-stringify-safe"
          },
          "version": "5.0.1"
        },
        {
          "package": {
            "name": "lodash"
          },
          "version": "4.17.11"
        },
        {
          "package": {
            "name": "mime"
          },
          "version": "1.2.11"
        },
        {
          "package": {
            "name": "mime-types"
          },
          "version": "1.0.2"
        },
        {
          "package": {
            "name": "moment"
          },
          "version": "2.19.1"
        },
        {
          "package": {
            "name": "node-uuid"
          },
          "version": "1.4.8"
        },
        {
          "package": {
            "name": "oauth-sign"
          },
          "version": "0.4.0"
        },
        {
          "package": {
            "name": "psl"
          },
          "version": "1.9.0"
        },
        {
          "package": {
            "name": "punycode"
          },
          "version": "2.1.1"
        },
        {
          "package": {
            "name": "qs"
          },
          "version": "1.2.2"
        },
        {
          "package": {
            "name": "querystringify"
          },
          "version": "2.2.0"
        },
        {
          "package": {
            "name": "readable-stream"
          },
          "version": "1.0.34"
        },
        {
          "package": {
            "name": "request"
          },
          "version": "2.46.0"
        },
        {
          "package": {
            "name": "requires-port"
          },
          "version": "1.0.0"
        },
        {
          "package": {
            "name": "sntp"
          },
          "version": "0.2.4"
        },
        {
          "package": {
            "name": "string_decoder"
          },
          "version": "0.10.31"
        },
        {
          "package": {
            "name": "stringstream"
          },
          "version": "0.0.6"
        },
        {
          "package": {
            "name": "tough-cookie"
          },
          "version": "4.1.2"
        },
        {
          "package": {
            "name": "tunnel-agent"
          },
          "version": "0.4.3"
        },
        {
          "package": {
            "name": "universalify"
          },
          "version": "0.2.0"
        },
        {
          "package": {
            "name": "url-parse"
          },
          "version": "1.5.10"
        }
      ]
    }
  ],
  "scan": {
    "analyzer": {
      "id": "gemnasium",
      "name": "Gemnasium",
      "url": "https://gitlab.com/gitlab-org/security-products/analyzers/gemnasium",
      "vendor": {
        "name": "GitLab"
      },
      "version": "3.12.0"
    },
    "scanner": {
      "id": "gemnasium",
      "name": "Gemnasium",
      "url": "https://gitlab.com/gitlab-org/security-products/analyzers/gemnasium",
      "vendor": {
        "name": "GitLab"
      },
      "version": "3.12.0"
    },
    "type": "dependency_scanning",
    "start_time": "2023-01-27T00:03:35",
    "end_time": "2023-01-27T00:03:59",
    "status": "success"
  }
}
