[
    {
        "name": "github.com/minio/minio",
        "version": "v0.0.0-20180419184637-5a16671f721f"
    },
    {
        "name": "github.com/minio/minio-go",
        "version": "v6.0.14+incompatible"
    },
    {
        "name": "github.com/minio/sha256-simd",
        "version": "v0.1.1"
    },
    {
        "name": "github.com/sirupsen/logrus",
        "version": "v1.4.2"
    }
]
