{
  "version": "14.0.4",
  "vulnerabilities": [
    {
      "id": "c8fbc7691c2855dd731176f7fc70cce5ffbdc7677a8219dd45b470409a02d9c8",
      "category": "dependency_scanning",
      "name": "XML Entity Expansion",
      "message": "XML Entity Expansion in gopkg.in/yaml.v2",
      "description": "go-yaml is vulnerable to a Billion Laughs Attack.",
      "cve": "go.sum:gopkg.in/yaml.v2:gemnasium:7368f513-0aa9-4e34-a08d-40ea81f48e0e",
      "severity": "Unknown",
      "solution": "Upgrade to version 2.2.3 or above.",
      "scanner": {
        "id": "gemnasium",
        "name": "Gemnasium"
      },
      "location": {
        "file": "go.sum",
        "dependency": {
          "package": {
            "name": "gopkg.in/yaml.v2"
          },
          "version": "v2.2.2"
        }
      },
      "identifiers": [
        {
          "type": "gemnasium",
          "name": "Gemnasium-7368f513-0aa9-4e34-a08d-40ea81f48e0e",
          "value": "7368f513-0aa9-4e34-a08d-40ea81f48e0e",
          "url": "https://gitlab.com/gitlab-org/security-products/gemnasium-db/-/blob/2020-01-15/go/gopkg.in/yaml.v2/GMS-2019-2.yml"
        }
      ],
      "links": [
        {
          "url": "https://github.com/docker/cli/pull/2117"
        }
      ],
      "details": {
        "vulnerable_package": {
          "name": "Vulnerable Package",
          "type": "text",
          "value": "gopkg.in/yaml.v2:v2.2.2"
        }
      }
    }
  ],
  "dependency_files": [
    {
      "path": "go.sum",
      "package_manager": "go",
      "dependencies": [
        {
          "package": {
            "name": "github.com/astaxie/beego"
          },
          "version": "v1.10.0"
        },
        {
          "package": {
            "name": "github.com/davecgh/go-spew"
          },
          "version": "v1.1.1"
        },
        {
          "package": {
            "name": "github.com/konsorten/go-windows-terminal-sequences"
          },
          "version": "v1.0.1"
        },
        {
          "package": {
            "name": "github.com/minio/minio"
          },
          "version": "v0.0.0-20180419184637-5a16671f721f"
        },
        {
          "package": {
            "name": "github.com/minio/minio-go"
          },
          "version": "v6.0.14"
        },
        {
          "package": {
            "name": "github.com/minio/sha256-simd"
          },
          "version": "v0.1.1"
        },
        {
          "package": {
            "name": "github.com/pmezard/go-difflib"
          },
          "version": "v1.0.0"
        },
        {
          "package": {
            "name": "github.com/sirupsen/logrus"
          },
          "version": "v1.4.2"
        },
        {
          "package": {
            "name": "github.com/stretchr/objx"
          },
          "version": "v0.1.1"
        },
        {
          "package": {
            "name": "github.com/stretchr/testify"
          },
          "version": "v1.2.2"
        },
        {
          "package": {
            "name": "golang.org/x/sys"
          },
          "version": "v0.0.0-20190422165155-953cdadca894"
        },
        {
          "package": {
            "name": "golang.org/x/sys"
          },
          "version": "v0.0.0-20191026070338-33540a1f6037"
        },
        {
          "package": {
            "name": "gopkg.in/check.v1"
          },
          "version": "v0.0.0-20161208181325-20d25e280405"
        },
        {
          "package": {
            "name": "gopkg.in/fake-package"
          },
          "version": "v0.0.0-20161208181325-20d25e280405"
        },
        {
          "package": {
            "name": "gopkg.in/yaml.v2"
          },
          "version": "v2.2.2"
        }
      ]
    }
  ],
  "scan": {
    "analyzer": {
      "id": "gemnasium",
      "name": "Gemnasium",
      "url": "https://gitlab.com/gitlab-org/security-products/analyzers/gemnasium",
      "vendor": {
        "name": "GitLab"
      },
      "version": "3.6.0"
    },
    "scanner": {
      "id": "gemnasium",
      "name": "Gemnasium",
      "url": "https://gitlab.com/gitlab-org/security-products/analyzers/gemnasium",
      "vendor": {
        "name": "GitLab"
      },
      "version": "2.33.0"
    },
    "type": "dependency_scanning",
    "start_time": "2022-02-17T02:26:46",
    "end_time": "2022-02-17T02:26:46",
    "status": "success"
  }
}
