{
  "bomFormat": "CycloneDX",
  "specVersion": "1.3",
  "serialNumber": "urn:uuid:54dd93f5-99d2-4e66-90d9-0dda8a24bea2",
  "version": 1,
  "metadata": {
    "tools": [
      {
        "vendor": "GitLab",
        "name": "gemnasium",
        "version": "not-configured"
      }
    ],
    "authors": [
      {
        "name": "GitLab",
        "email": "gitlab@gitlab.com"
      }
    ],
    "lock_file": "gem/Gemfile.lock",
    "package_manager": "bundler"
  },
  "components": [
    {
      "iid": 1,
      "name": "pg",
      "version": "1.3.1",
      "description": "description",
      "purl": "pkg:bundler/pg@1.3.1",
      "type": "library",
      "bom-ref": "pkg:bundler/pg@1.3.1"
    }
  ]
}
