[
	{
		"name": "github.com/alecthomas/template",
		"version": "v0.0.0-20160405071501-a0175ee3bccc"
	},
	{
		"name": "github.com/alecthomas/template",
		"version": "v0.0.0-20190718012654-fb15b899a751"
	},
	{
		"name": "github.com/alecthomas/units",
		"version": "v0.0.0-20151022065526-2efee857e7cf"
	},
	{
		"name": "github.com/alecthomas/units",
		"version": "v0.0.0-20190717042225-c3de453c63f4"
	},
	{
		"name": "github.com/anmitsu/go-shlex",
		"version": "v0.0.0-20161002113705-648efa622239"
	},
	{
		"name": "github.com/armon/go-radix",
		"version": "v1.0.0"
	},
	{
		"name": "github.com/beorn7/perks",
		"version": "v0.0.0-20180321164747-3a771d992973"
	},
	{
		"name": "github.com/beorn7/perks",
		"version": "v1.0.0"
	},
	{
		"name": "github.com/beorn7/perks",
		"version": "v1.0.1"
	},
	{
		"name": "github.com/cespare/xxhash/v2",
		"version": "v2.1.0"
	},
	{
		"name": "github.com/cespare/xxhash/v2",
		"version": "v2.1.1"
	},
	{
		"name": "github.com/cyberdelia/go-metrics-graphite",
		"version": "v0.0.0-20161219230853-39f87cc3b432"
	},
	{
		"name": "github.com/davecgh/go-spew",
		"version": "v1.1.0"
	},
	{
		"name": "github.com/davecgh/go-spew",
		"version": "v1.1.1"
	},
	{
		"name": "github.com/flynn/go-shlex",
		"version": "v0.0.0-20150515145356-3f9db97f8568"
	},
	{
		"name": "github.com/flynn/noise",
		"version": "v0.0.0-20180327030543-2492fe189ae6"
	},
	{
		"name": "github.com/go-kit/kit",
		"version": "v0.8.0"
	},
	{
		"name": "github.com/go-kit/kit",
		"version": "v0.9.0"
	},
	{
		"name": "github.com/go-logfmt/logfmt",
		"version": "v0.3.0"
	},
	{
		"name": "github.com/go-logfmt/logfmt",
		"version": "v0.4.0"
	},
	{
		"name": "github.com/go-stack/stack",
		"version": "v1.8.0"
	},
	{
		"name": "github.com/gogo/protobuf",
		"version": "v1.1.1"
	},
	{
		"name": "github.com/golang/protobuf",
		"version": "v1.2.0"
	},
	{
		"name": "github.com/golang/protobuf",
		"version": "v1.3.1"
	},
	{
		"name": "github.com/golang/protobuf",
		"version": "v1.3.2"
	},
	{
		"name": "github.com/google/go-cmp",
		"version": "v0.3.0"
	},
	{
		"name": "github.com/google/go-cmp",
		"version": "v0.3.1"
	},
	{
		"name": "github.com/google/gofuzz",
		"version": "v1.0.0"
	},
	{
		"name": "github.com/imdario/mergo",
		"version": "v0.3.8"
	},
	{
		"name": "github.com/json-iterator/go",
		"version": "v1.1.6"
	},
	{
		"name": "github.com/json-iterator/go",
		"version": "v1.1.7"
	},
	{
		"name": "github.com/julienschmidt/httprouter",
		"version": "v1.2.0"
	},
	{
		"name": "github.com/kardianos/service",
		"version": "v1.0.0"
	},
	{
		"name": "github.com/konsorten/go-windows-terminal-sequences",
		"version": "v1.0.1"
	},
	{
		"name": "github.com/konsorten/go-windows-terminal-sequences",
		"version": "v1.0.2"
	},
	{
		"name": "github.com/kr/logfmt",
		"version": "v0.0.0-20140226030751-b84e30acd515"
	},
	{
		"name": "github.com/kr/pretty",
		"version": "v0.1.0"
	},
	{
		"name": "github.com/kr/pty",
		"version": "v1.1.1"
	},
	{
		"name": "github.com/kr/text",
		"version": "v0.1.0"
	},
	{
		"name": "github.com/matttproud/golang_protobuf_extensions",
		"version": "v1.0.1"
	},
	{
		"name": "github.com/miekg/dns",
		"version": "v1.1.25"
	},
	{
		"name": "github.com/modern-go/concurrent",
		"version": "v0.0.0-20180228061459-e0a39a4cb421"
	},
	{
		"name": "github.com/modern-go/concurrent",
		"version": "v0.0.0-20180306012644-bacd9c7ef1dd"
	},
	{
		"name": "github.com/modern-go/reflect2",
		"version": "v0.0.0-20180701023420-4b7aa43c6742"
	},
	{
		"name": "github.com/modern-go/reflect2",
		"version": "v1.0.1"
	},
	{
		"name": "github.com/mwitkow/go-conntrack",
		"version": "v0.0.0-20161129095857-cc309e4a2223"
	},
	{
		"name": "github.com/nbrownus/go-metrics-prometheus",
		"version": "v0.0.0-20180622211546-6e6d5173d99c"
	},
	{
		"name": "github.com/pkg/errors",
		"version": "v0.8.0"
	},
	{
		"name": "github.com/pkg/errors",
		"version": "v0.8.1"
	},
	{
		"name": "github.com/pmezard/go-difflib",
		"version": "v1.0.0"
	},
	{
		"name": "github.com/prometheus/client_golang",
		"version": "v0.9.1"
	},
	{
		"name": "github.com/prometheus/client_golang",
		"version": "v1.0.0"
	},
	{
		"name": "github.com/prometheus/client_golang",
		"version": "v1.2.1"
	},
	{
		"name": "github.com/prometheus/client_model",
		"version": "v0.0.0-20180712105110-5c3871d89910"
	},
	{
		"name": "github.com/prometheus/client_model",
		"version": "v0.0.0-20190129233127-fd36f4220a90"
	},
	{
		"name": "github.com/prometheus/client_model",
		"version": "v0.0.0-20190812154241-14fe0d1b01d4"
	},
	{
		"name": "github.com/prometheus/client_model",
		"version": "v0.0.0-20191202183732-d1d2010b5bee"
	},
	{
		"name": "github.com/prometheus/common",
		"version": "v0.4.1"
	},
	{
		"name": "github.com/prometheus/common",
		"version": "v0.7.0"
	},
	{
		"name": "github.com/prometheus/procfs",
		"version": "v0.0.0-20181005140218-185b4288413d"
	},
	{
		"name": "github.com/prometheus/procfs",
		"version": "v0.0.2"
	},
	{
		"name": "github.com/prometheus/procfs",
		"version": "v0.0.5"
	},
	{
		"name": "github.com/prometheus/procfs",
		"version": "v0.0.8"
	},
	{
		"name": "github.com/rcrowley/go-metrics",
		"version": "v0.0.0-20190826022208-cac0b30c2563"
	},
	{
		"name": "github.com/sirupsen/logrus",
		"version": "v1.2.0"
	},
	{
		"name": "github.com/sirupsen/logrus",
		"version": "v1.4.2"
	},
	{
		"name": "github.com/songgao/water",
		"version": "v0.0.0-20190725173103-fd331bda3f4b"
	},
	{
		"name": "github.com/stretchr/objx",
		"version": "v0.1.0"
	},
	{
		"name": "github.com/stretchr/objx",
		"version": "v0.1.1"
	},
	{
		"name": "github.com/stretchr/testify",
		"version": "v1.2.2"
	},
	{
		"name": "github.com/stretchr/testify",
		"version": "v1.3.0"
	},
	{
		"name": "github.com/stretchr/testify",
		"version": "v1.4.0"
	},
	{
		"name": "github.com/vishvananda/netlink",
		"version": "v1.0.1-0.20190522153524-00009fb8606a"
	},
	{
		"name": "github.com/vishvananda/netns",
		"version": "v0.0.0-20191106174202-0a2b9b5464df"
	},
	{
		"name": "golang.org/x/crypto",
		"version": "v0.0.0-20180904163835-0709b304e793"
	},
	{
		"name": "golang.org/x/crypto",
		"version": "v0.0.0-20190308221718-c2843e01d9a2"
	},
	{
		"name": "golang.org/x/crypto",
		"version": "v0.0.0-20190923035154-9ee001bba392"
	},
	{
		"name": "golang.org/x/crypto",
		"version": "v0.0.0-20191206172530-e9b2fee46413"
	},
	{
		"name": "golang.org/x/net",
		"version": "v0.0.0-20181114220301-adae6a3d119a"
	},
	{
		"name": "golang.org/x/net",
		"version": "v0.0.0-20190404232315-eb5bcb51f2a3"
	},
	{
		"name": "golang.org/x/net",
		"version": "v0.0.0-20190613194153-d28f0bde5980"
	},
	{
		"name": "golang.org/x/net",
		"version": "v0.0.0-20190620200207-3b0461eec859"
	},
	{
		"name": "golang.org/x/net",
		"version": "v0.0.0-20190923162816-aa69164e4478"
	},
	{
		"name": "golang.org/x/net",
		"version": "v0.0.0-20191209160850-c0dbc17a3553"
	},
	{
		"name": "golang.org/x/sync",
		"version": "v0.0.0-20181108010431-42b317875d0f"
	},
	{
		"name": "golang.org/x/sync",
		"version": "v0.0.0-20181221193216-37e7f081c4d4"
	},
	{
		"name": "golang.org/x/sync",
		"version": "v0.0.0-20190423024810-112230192c58"
	},
	{
		"name": "golang.org/x/sync",
		"version": "v0.0.0-20190911185100-cd5d95a43a6e"
	},
	{
		"name": "golang.org/x/sys",
		"version": "v0.0.0-20180905080454-ebe1bf3edb33"
	},
	{
		"name": "golang.org/x/sys",
		"version": "v0.0.0-20181116152217-5ac8a444bdc5"
	},
	{
		"name": "golang.org/x/sys",
		"version": "v0.0.0-20190204203706-41f3e6584952"
	},
	{
		"name": "golang.org/x/sys",
		"version": "v0.0.0-20190215142949-d0b11bdaac8a"
	},
	{
		"name": "golang.org/x/sys",
		"version": "v0.0.0-20190412213103-97732733099d"
	},
	{
		"name": "golang.org/x/sys",
		"version": "v0.0.0-20190422165155-953cdadca894"
	},
	{
		"name": "golang.org/x/sys",
		"version": "v0.0.0-20190922100055-0a153f010e69"
	},
	{
		"name": "golang.org/x/sys",
		"version": "v0.0.0-20190924154521-2837fb4f24fe"
	},
	{
		"name": "golang.org/x/sys",
		"version": "v0.0.0-20191010194322-b09406accb47"
	},
	{
		"name": "golang.org/x/sys",
		"version": "v0.0.0-20191210023423-ac6580df4449"
	},
	{
		"name": "golang.org/x/text",
		"version": "v0.3.0"
	},
	{
		"name": "golang.org/x/text",
		"version": "v0.3.2"
	},
	{
		"name": "golang.org/x/tools",
		"version": "v0.0.0-20180917221912-90fa682c2a6e"
	},
	{
		"name": "golang.org/x/tools",
		"version": "v0.0.0-20190907020128-2ca718005c18"
	},
	{
		"name": "golang.org/x/xerrors",
		"version": "v0.0.0-20190717185122-a985d3407aa7"
	},
	{
		"name": "gopkg.in/alecthomas/kingpin.v2",
		"version": "v2.2.6"
	},
	{
		"name": "gopkg.in/check.v1",
		"version": "v0.0.0-20161208181325-20d25e280405"
	},
	{
		"name": "gopkg.in/check.v1",
		"version": "v1.0.0-20180628173108-788fd7840127"
	},
	{
		"name": "gopkg.in/yaml.v2",
		"version": "v2.2.1"
	},
	{
		"name": "gopkg.in/yaml.v2",
		"version": "v2.2.2"
	},
	{
		"name": "gopkg.in/yaml.v2",
		"version": "v2.2.7"
	}
]
